CPU Quartus/cpu_tb.vcd
$date
	Wed Apr 02 12:58:51 2014
$end
$version
	Icarus Verilog
$end
$timescale
	10ps
$end
$scope module cpu_tb $end
$var wire 8 ! sal1 [7:0] $end
$var wire 8 " sal2 [7:0] $end
$var wire 8 # sal3 [7:0] $end
$var wire 8 $ sal4 [7:0] $end
$var reg 1 % clk $end
$var reg 8 & ent1 [7:0] $end
$var reg 8 ' ent2 [7:0] $end
$var reg 8 ( ent3 [7:0] $end
$var reg 8 ) ent4 [7:0] $end
$var reg 1 * reset $end
$scope module cpu0 $end
$var wire 1 + clk $end
$var wire 8 , ent1 [7:0] $end
$var wire 8 - ent2 [7:0] $end
$var wire 8 . ent3 [7:0] $end
$var wire 8 / ent4 [7:0] $end
$var wire 3 0 op [2:0] $end
$var wire 6 1 opcode [5:0] $end
$var wire 1 2 reset $end
$var wire 1 3 s_in $end
$var wire 1 4 s_inc $end
$var wire 1 5 s_inm $end
$var wire 1 6 s_inst $end
$var wire 1 7 s_out $end
$var wire 1 8 s_rel $end
$var wire 8 9 sal1 [7:0] $end
$var wire 8 : sal2 [7:0] $end
$var wire 8 ; sal3 [7:0] $end
$var wire 8 < sal4 [7:0] $end
$var wire 1 = we3 $end
$var wire 1 > z $end
$scope module microc0 $end
$var wire 8 ? RD1 [7:0] $end
$var wire 8 @ RD2 [7:0] $end
$var wire 8 A WD3 [7:0] $end
$var wire 1 + clk $end
$var wire 16 B datos [15:0] $end
$var wire 1 C e1 $end
$var wire 1 D e2 $end
$var wire 1 E e3 $end
$var wire 1 F e4 $end
$var wire 8 G entrada1 [7:0] $end
$var wire 8 H entrada2 [7:0] $end
$var wire 8 I entrada3 [7:0] $end
$var wire 8 J entrada4 [7:0] $end
$var wire 3 K op [2:0] $end
$var wire 6 L opcode [5:0] $end
$var wire 1 2 reset $end
$var wire 1 3 s_in $end
$var wire 1 4 s_inc $end
$var wire 1 5 s_inm $end
$var wire 1 6 s_inst $end
$var wire 1 7 s_out $end
$var wire 1 8 s_rel $end
$var wire 10 M sal_PC [9:0] $end
$var wire 8 N sal_alu [7:0] $end
$var wire 10 O sal_mux0 [9:0] $end
$var wire 8 P sal_mux1 [7:0] $end
$var wire 8 Q sal_mux3 [7:0] $end
$var wire 10 R sal_mux4 [9:0] $end
$var wire 10 S sal_sum0 [9:0] $end
$var wire 8 T sal_wp1 [7:0] $end
$var wire 8 U sal_wp2 [7:0] $end
$var wire 8 V sal_wp3 [7:0] $end
$var wire 8 W sal_wp4 [7:0] $end
$var wire 8 X salida1 [7:0] $end
$var wire 8 Y salida2 [7:0] $end
$var wire 8 Z salida3 [7:0] $end
$var wire 8 [ salida4 [7:0] $end
$var wire 1 = we3 $end
$var wire 1 > z $end
$var wire 1 \ zero $end
$scope module mux0 $end
$var wire 10 ] d0 [9:0] $end
$var wire 10 ^ d1 [9:0] $end
$var wire 1 4 s $end
$var wire 10 _ y [9:0] $end
$upscope $end
$scope module sum0 $end
$var wire 10 ` a [9:0] $end
$var wire 10 a b [9:0] $end
$var wire 10 b y [9:0] $end
$upscope $end
$scope module PC $end
$var wire 1 + clk $end
$var wire 10 c d [9:0] $end
$var wire 1 2 reset $end
$var reg 10 d q [9:0] $end
$upscope $end
$scope module meminstrucciones $end
$var wire 10 e a [9:0] $end
$var wire 1 + clk $end
$var wire 16 f rd [15:0] $end
$upscope $end
$scope module bancoreg $end
$var wire 1 + clk $end
$var wire 4 g ra1 [3:0] $end
$var wire 4 h ra2 [3:0] $end
$var wire 8 i rd1 [7:0] $end
$var wire 8 j rd2 [7:0] $end
$var wire 4 k wa3 [3:0] $end
$var wire 8 l wd3 [7:0] $end
$var wire 1 = we3 $end
$upscope $end
$scope module alu0 $end
$var wire 8 m a [7:0] $end
$var wire 8 n b [7:0] $end
$var wire 3 o op [2:0] $end
$var wire 8 p y [7:0] $end
$var wire 1 \ zero $end
$var reg 8 q s [7:0] $end
$upscope $end
$scope module mux1 $end
$var wire 8 r d0 [7:0] $end
$var wire 8 s d1 [7:0] $end
$var wire 1 5 s $end
$var wire 8 t y [7:0] $end
$upscope $end
$scope module decod0 $end
$var wire 2 u in [1:0] $end
$var reg 1 v e0 $end
$var reg 1 w e1 $end
$var reg 1 x e2 $end
$var reg 1 y e3 $end
$upscope $end
$scope module rd1 $end
$var wire 1 + clk $end
$var wire 8 z d0 [7:0] $end
$var wire 8 { d1 [7:0] $end
$var wire 1 C enable $end
$var wire 1 2 reset $end
$var wire 1 6 s_inst $end
$var wire 1 7 s_out $end
$var reg 8 | q [7:0] $end
$upscope $end
$scope module rd2 $end
$var wire 1 + clk $end
$var wire 8 } d0 [7:0] $end
$var wire 8 ~ d1 [7:0] $end
$var wire 1 D enable $end
$var wire 1 2 reset $end
$var wire 1 6 s_inst $end
$var wire 1 7 s_out $end
$var reg 8 !" q [7:0] $end
$upscope $end
$scope module rd3 $end
$var wire 1 + clk $end
$var wire 8 "" d0 [7:0] $end
$var wire 8 #" d1 [7:0] $end
$var wire 1 E enable $end
$var wire 1 2 reset $end
$var wire 1 6 s_inst $end
$var wire 1 7 s_out $end
$var reg 8 $" q [7:0] $end
$upscope $end
$scope module rd4 $end
$var wire 1 + clk $end
$var wire 8 %" d0 [7:0] $end
$var wire 8 &" d1 [7:0] $end
$var wire 1 F enable $end
$var wire 1 2 reset $end
$var wire 1 6 s_inst $end
$var wire 1 7 s_out $end
$var reg 8 '" q [7:0] $end
$upscope $end
$scope module wp1 $end
$var wire 1 + clk $end
$var wire 8 (" d [7:0] $end
$var wire 1 2 reset $end
$var reg 8 )" q [7:0] $end
$upscope $end
$scope module wp2 $end
$var wire 1 + clk $end
$var wire 8 *" d [7:0] $end
$var wire 1 2 reset $end
$var reg 8 +" q [7:0] $end
$upscope $end
$scope module wp3 $end
$var wire 1 + clk $end
$var wire 8 ," d [7:0] $end
$var wire 1 2 reset $end
$var reg 8 -" q [7:0] $end
$upscope $end
$scope module wp4 $end
$var wire 1 + clk $end
$var wire 8 ." d [7:0] $end
$var wire 1 2 reset $end
$var reg 8 /" q [7:0] $end
$upscope $end
$scope module mux3 $end
$var wire 8 0" d0 [7:0] $end
$var wire 8 1" d1 [7:0] $end
$var wire 8 2" d2 [7:0] $end
$var wire 8 3" d3 [7:0] $end
$var wire 2 4" s [1:0] $end
$var reg 8 5" y [7:0] $end
$upscope $end
$scope module mux2 $end
$var wire 8 6" d0 [7:0] $end
$var wire 8 7" d1 [7:0] $end
$var wire 1 3 s $end
$var wire 8 8" y [7:0] $end
$upscope $end
$scope module mux4 $end
$var wire 10 9" d0 [9:0] $end
$var wire 10 :" d1 [9:0] $end
$var wire 1 8 s $end
$var wire 10 ;" y [9:0] $end
$upscope $end
$upscope $end
$scope module uc0 $end
$var wire 1 + clk $end
$var wire 6 <" datos [5:0] $end
$var wire 1 2 reset $end
$var wire 1 > zero $end
$var reg 3 =" op [2:0] $end
$var reg 1 >" s_in $end
$var reg 1 ?" s_inc $end
$var reg 1 @" s_inm $end
$var reg 1 A" s_inst $end
$var reg 1 B" s_out $end
$var reg 1 C" s_rel $end
$var reg 1 D" we3 $end
$var reg 1 E" ze $end
$upscope $end
$upscope $end
$upscope $end
$enddefinitions $end
#0
$dumpvars
xE"
1D"
0C"
0B"
0A"
1@"
1?"
0>"
b0 ="
b0 <"
b1 ;"
b1000000 :"
b1 9"
b0 8"
b0 7"
b0 6"
b0 5"
b0 4"
b0 3"
b0 2"
b0 1"
b0 0"
b0 /"
bx ."
b0 -"
bx ,"
b0 +"
bx *"
b0 )"
b11010000 ("
b0 '"
b10000 &"
b0 %"
b0 $"
b10000 #"
b0 ""
b0 !"
b10000 ~
b0 }
b0 |
b10000 {
b0 z
0y
0x
0w
1v
b0 u
b0 t
b0 s
b0 r
b0 q
b0 p
b0 o
b0 n
b0 m
b0 l
b1 k
b0 j
b0 i
b0 h
b0 g
b1000000000000 f
b0 e
b0 d
b1 c
b1 b
b1 a
b0 `
b1 _
b1 ^
b1000000 ]
1\
b0 [
b0 Z
b0 Y
b0 X
b0 W
b0 V
b0 U
b0 T
b1 S
b1 R
b0 Q
b0 P
b1 O
b0 N
b0 M
b0 L
b0 K
bx J
bx I
bx H
b11010000 G
0F
0E
0D
1C
b1000000000000 B
b0 A
b0 @
b0 ?
1>
1=
b0 <
b0 ;
b0 :
b0 9
08
07
06
15
14
03
12
b0 1
b0 0
bx /
bx .
bx -
b11010000 ,
1+
1*
bx )
bx (
bx '
b11010000 &
1%
b0 $
b0 #
b0 "
b0 !
$end
#1000
0*
02
#4000
0%
0+
#8000
b11010000 5"
b11010000 Q
b11010000 7"
b10000000 :"
b100000 &"
b100000 #"
b100000 ~
b100000 {
b10 k
b10000000 ]
b10 O
b10 _
b10 c
bx /"
bx W
bx 3"
bx -"
bx V
bx 2"
bx +"
bx U
bx 1"
b11010000 )"
b11010000 T
b11010000 0"
b1 d
b10000000000000 B
b10000000000000 f
b10 S
b10 ^
b10 b
b1 M
b1 `
b1 e
1%
1+
#12000
0%
0+
#16000
bx 5"
bx Q
bx 7"
b1 A
b1 l
b1 8"
1w
1D
0v
0C
b1 P
b1 t
b1 6"
b10000 1
b10000 L
b10000 <"
b11000000 :"
b1 4"
b110000 &"
b110000 #"
b110000 ~
b110000 {
b1 u
b1 s
b11 k
b1 g
b11000000 ]
b11 O
b11 _
b11 c
b10 d
b11000000010000 B
b11000000010000 f
b11 S
b11 ^
b11 b
b10 M
b10 `
b10 e
1%
1+
#20000
0%
0+
#24000
b1000000000 :"
b10000000 &"
b10000000 #"
b10000000 ~
b10000000 {
b1000 k
b1000000000 ]
b100 O
b100 _
b100 c
b11 d
b1000000000010000 B
b1000000000010000 f
b100 S
b100 ^
b100 b
b11 M
b11 `
b11 e
1%
1+
#28000
0%
0+
#32000
b11010000 5"
b11010000 Q
b11010000 7"
b10000000 A
b10000000 l
b10000000 8"
0w
0D
1v
1C
b10000000 P
b10000000 t
b10000000 6"
b1 @
b1 j
b1 n
b1 z
b1 }
b1 ""
b1 %"
b0 1
b0 L
b0 <"
b1001100000 :"
b0 4"
b10011000 &"
b10011000 #"
b10011000 ~
b10011000 {
b0 u
b10000000 s
b1001 k
b1000 h
b0 g
b1001100000 ]
b101 O
b101 _
b101 c
b100 d
b1001100000000000 B
b1001100000000000 f
b101 S
b101 ^
b101 b
b100 M
b100 `
b100 e
1%
1+
#36000
0%
0+
#40000
bx 5"
bx Q
bx 7"
b10 A
b10 l
b10 8"
1x
1E
0v
0C
b10 P
b10 t
b10 6"
b0 @
b0 j
b0 n
b0 z
b0 }
b0 ""
b0 %"
b100000 1
b100000 L
b100000 <"
b1010000000 :"
b10 4"
b10100000 &"
b10100000 #"
b10100000 ~
b10100000 {
b10 u
b10 s
b1010 k
b0 h
b10 g
b1010000000 ]
b110 O
b110 _
b110 c
b101 d
b1010000000100000 B
b1010000000100000 f
b110 S
b110 ^
b110 b
b101 M
b101 `
b101 e
1%
1+
#44000
0%
0+
#48000
1>"
13
0@"
05
b11010000 5"
b11010000 Q
b11010000 7"
b11010000 A
b11010000 l
b11010000 8"
0x
0E
1v
1C
b0 P
b0 t
b0 6"
b1101 1
b1101 L
b1101 <"
b100000000 :"
b0 4"
b1000000 &"
b1000000 #"
b1000000 ~
b1000000 {
b0 u
b0 s
b100 k
b0 g
b100000000 ]
b111 O
b111 _
b111 c
b110 d
b100000000001101 B
b100000000001101 f
b111 S
b111 ^
b111 b
b110 M
b110 `
b110 e
1%
1+
#52000
0%
0+
#56000
b0 A
b0 l
b0 8"
0>"
03
b100 ="
b100 0
b100 K
b100 o
bx 5"
bx Q
bx 7"
1E"
1\
1>
b0 P
b0 t
b0 6"
b0 q
b0 N
b0 p
b0 r
1y
1F
0v
0C
b11010000 @
b11010000 j
b11010000 n
b11010000 z
b11010000 }
b11010000 ""
b11010000 %"
b1 ?
b1 i
b1 m
b110011 1
b110011 L
b110011 <"
b101010000 :"
b11 4"
b1010100 &"
b1010100 #"
b1010100 ~
b1010100 {
b11 u
b1000011 s
b101 k
b100 h
b11 g
b101010000 ]
b1000 O
b1000 _
b1000 c
b111 d
b101010000110011 B
b101010000110011 f
b1000 S
b1000 ^
b1000 b
b111 M
b111 `
b111 e
1%
1+
#60000
0%
0+
#64000
b1 A
b1 l
b1 8"
0\
0>
b1 P
b1 t
b1 6"
b1 q
b1 N
b1 p
b1 r
b0 ="
b0 0
b0 K
b0 o
0D"
0=
b11010000 5"
b11010000 Q
b11010000 7"
0y
0F
1v
1C
b0 @
b0 j
b0 n
b0 z
b0 }
b0 ""
b0 %"
b1011 1
b1011 L
b1011 <"
b1010 :"
b0 4"
b10 &"
b10 #"
b10 ~
b10 {
b0 u
b101000 s
b0 k
b10 h
b1000 g
b1010 ]
b1001 O
b1001 _
b1001 c
b1000 d
b1010001011 B
b1010001011 f
b1001 S
b1001 ^
b1001 b
b1000 M
b1000 `
b1000 e
1%
1+
#68000
0%
0+
#72000
0?"
04
bx A
bx l
bx 8"
x\
x>
bx P
bx t
bx 6"
bx q
bx N
bx p
bx r
bx ?
bx i
bx m
b1001 1
b1001 L
b1001 <"
b1011 :"
b101100 s
b1100 g
b1011 ]
b1011 O
b1011 _
b1011 c
b1001 d
b1011001001 B
b1011001001 f
b1010 S
b1010 ^
b1010 b
b1001 M
b1001 `
b1001 e
1%
1+
#76000
0%
0+
#80000
b100 ="
b100 0
b100 K
b100 o
1?"
14
1D"
1=
bx 5"
bx Q
bx 7"
1E"
b0 A
b0 l
b0 8"
1\
1>
b0 P
b0 t
b0 6"
b0 q
b0 N
b0 p
b0 r
1y
1F
0v
0C
b11010000 @
b11010000 j
b11010000 n
b11010000 z
b11010000 }
b11010000 ""
b11010000 %"
b1 ?
b1 i
b1 m
b1100 O
b1100 _
b1100 c
b110011 1
b110011 L
b110011 <"
b101010000 :"
b11 4"
b1010100 &"
b1010100 #"
b1010100 ~
b1010100 {
b11 u
b1000011 s
b101 k
b100 h
b11 g
b101010000 ]
b1011 d
b101010000110011 B
b101010000110011 f
b1100 S
b1100 ^
b1100 b
b1011 M
b1011 `
b1011 e
1%
1+
#84000
0%
0+
#88000
b0 ="
b0 0
b0 K
b0 o
0?"
04
0D"
0=
b11010000 5"
b11010000 Q
b11010000 7"
b1 A
b1 l
b1 8"
0\
0>
b1 P
b1 t
b1 6"
b1 q
b1 N
b1 p
b1 r
0y
0F
1v
1C
b1 @
b1 j
b1 n
b1 z
b1 }
b1 ""
b1 %"
b1010 1
b1010 L
b1010 <"
b1110 :"
b0 4"
b11 &"
b11 #"
b11 ~
b11 {
b0 u
b111000 s
b0 k
b11 h
b1000 g
b1110 ]
b1110 O
b1110 _
b1110 c
b1100 d
b1110001010 B
b1110001010 f
b1101 S
b1101 ^
b1101 b
b1100 M
b1100 `
b1100 e
1%
1+
#92000
0%
0+
#96000
b10 ="
b10 0
b10 K
b10 o
1?"
14
1D"
1=
bx 5"
bx Q
bx 7"
0E"
b1 A
b1 l
b1 8"
0\
0>
b1 P
b1 t
b1 6"
b1 q
b1 N
b1 p
b1 r
1x
1E
0v
0C
b0 ?
b0 i
b0 m
b1111 O
b1111 _
b1111 c
b100001 1
b100001 L
b100001 <"
b10100000 :"
b10 4"
b101000 &"
b101000 #"
b101000 ~
b101000 {
b10 u
b10000010 s
b10 k
b1000 h
b10 g
b10100000 ]
b1110 d
b10100000100001 B
b10100000100001 f
b1111 S
b1111 ^
b1111 b
b1110 M
b1110 `
b1110 e
1%
1+
#100000
0%
0+
#104000
b111 ="
b111 0
b111 K
b111 o
b10 A
b10 l
b10 8"
b10 P
b10 t
b10 6"
1y
1F
0x
0E
b0 @
b0 j
b0 n
b0 z
b0 }
b0 ""
b0 %"
b10 q
b10 N
b10 p
b10 r
b110111 1
b110111 L
b110111 <"
b11000000 :"
b11 4"
b110000 &"
b110000 #"
b110000 ~
b110000 {
b11 u
b11 s
b11 k
b0 h
b11 g
b11000000 ]
b10000 O
b10000 _
b10000 c
b1 ?
b1 i
b1 m
b1111 d
b11000000110111 B
b11000000110111 f
b10000 S
b10000 ^
b10000 b
b1111 M
b1111 `
b1111 e
1%
1+
#108000
0%
0+
#112000
b100 ="
b100 0
b100 K
b100 o
1E"
1\
1>
b0 A
b0 l
b0 8"
b0 P
b0 t
b0 6"
0y
0F
1w
1D
b10 @
b10 j
b10 n
b10 z
b10 }
b10 ""
b10 %"
b0 q
b0 N
b0 p
b0 r
b10011 1
b10011 L
b10011 <"
b111001110 :"
b1 4"
b1110011 &"
b1110011 #"
b1110011 ~
b1110011 {
b1 u
b111001 s
b111 k
b11 h
b1001 g
b111001110 ]
b10001 O
b10001 _
b10001 c
b10000000 ?
b10000000 i
b10000000 m
b10000 d
b111001110010011 B
b111001110010011 f
b10001 S
b10001 ^
b10001 b
b10000 M
b10000 `
b10000 e
1%
1+
#116000
0%
0+
#120000
bx A
bx l
bx 8"
x\
x>
bx P
bx t
bx 6"
bx q
bx N
bx p
bx r
b0 ="
b0 0
b0 K
b0 o
0?"
04
0D"
0=
b11010000 5"
b11010000 Q
b11010000 7"
0w
0D
1v
1C
b0 @
b0 j
b0 n
b0 z
b0 }
b0 ""
b0 %"
bx ?
bx i
bx m
b1010 1
b1010 L
b1010 <"
b111 :"
b0 4"
b1 &"
b1 #"
b1 ~
b1 {
b0 u
b11100 s
b0 k
b1 h
b1100 g
b111 ]
b111 O
b111 _
b111 c
b10001 d
b111001010 B
b111001010 f
b10010 S
b10010 ^
b10010 b
b10001 M
b10001 `
b10001 e
1%
1+
#124000
0%
0+
#128000
b100 ="
b100 0
b100 K
b100 o
1?"
14
1D"
1=
bx 5"
bx Q
bx 7"
1E"
b0 A
b0 l
b0 8"
1\
1>
b0 P
b0 t
b0 6"
b0 q
b0 N
b0 p
b0 r
1y
1F
0v
0C
b11010000 @
b11010000 j
b11010000 n
b11010000 z
b11010000 }
b11010000 ""
b11010000 %"
b10 ?
b10 i
b10 m
b1000 O
b1000 _
b1000 c
b110011 1
b110011 L
b110011 <"
b101010000 :"
b11 4"
b1010100 &"
b1010100 #"
b1010100 ~
b1010100 {
b11 u
b1000011 s
b101 k
b100 h
b11 g
b101010000 ]
b111 d
b101010000110011 B
b101010000110011 f
b1000 S
b1000 ^
b1000 b
b111 M
b111 `
b111 e
1%
1+
#132000
0%
0+
#136000
b0 ="
b0 0
b0 K
b0 o
0D"
0=
b11010000 5"
b11010000 Q
b11010000 7"
b1 A
b1 l
b1 8"
0\
0>
b1 P
b1 t
b1 6"
b1 q
b1 N
b1 p
b1 r
0y
0F
1v
1C
b1 @
b1 j
b1 n
b1 z
b1 }
b1 ""
b1 %"
b1 ?
b1 i
b1 m
b1011 1
b1011 L
b1011 <"
b1010 :"
b0 4"
b10 &"
b10 #"
b10 ~
b10 {
b0 u
b101000 s
b0 k
b10 h
b1000 g
b1010 ]
b1001 O
b1001 _
b1001 c
b1000 d
b1010001011 B
b1010001011 f
b1001 S
b1001 ^
b1001 b
b1000 M
b1000 `
b1000 e
1%
1+
#140000
0%
0+
#144000
0?"
04
bx A
bx l
bx 8"
x\
x>
bx P
bx t
bx 6"
bx q
bx N
bx p
bx r
bx ?
bx i
bx m
b1001 1
b1001 L
b1001 <"
b1011 :"
b101100 s
b1100 g
b1011 ]
b1011 O
b1011 _
b1011 c
b1001 d
b1011001001 B
b1011001001 f
b1010 S
b1010 ^
b1010 b
b1001 M
b1001 `
b1001 e
1%
1+
#148000
0%
0+
#152000
b100 ="
b100 0
b100 K
b100 o
1?"
14
1D"
1=
bx 5"
bx Q
bx 7"
1E"
b0 A
b0 l
b0 8"
1\
1>
b0 P
b0 t
b0 6"
b0 q
b0 N
b0 p
b0 r
1y
1F
0v
0C
b11010000 @
b11010000 j
b11010000 n
b11010000 z
b11010000 }
b11010000 ""
b11010000 %"
b10 ?
b10 i
b10 m
b1100 O
b1100 _
b1100 c
b110011 1
b110011 L
b110011 <"
b101010000 :"
b11 4"
b1010100 &"
b1010100 #"
b1010100 ~
b1010100 {
b11 u
b1000011 s
b101 k
b100 h
b11 g
b101010000 ]
b1011 d
b101010000110011 B
b101010000110011 f
b1100 S
b1100 ^
b1100 b
b1011 M
b1011 `
b1011 e
1%
1+
#156000
0%
0+
#160000
b1 A
b1 l
b1 8"
0\
0>
b1 P
b1 t
b1 6"
b1 q
b1 N
b1 p
b1 r
b0 ="
b0 0
b0 K
b0 o
0?"
04
0D"
0=
b11010000 5"
b11010000 Q
b11010000 7"
0y
0F
1v
1C
b10 @
b10 j
b10 n
b10 z
b10 }
b10 ""
b10 %"
b1 ?
b1 i
b1 m
b1010 1
b1010 L
b1010 <"
b1110 :"
b0 4"
b11 &"
b11 #"
b11 ~
b11 {
b0 u
b111000 s
b0 k
b11 h
b1000 g
b1110 ]
b1110 O
b1110 _
b1110 c
b1100 d
b1110001010 B
b1110001010 f
b1101 S
b1101 ^
b1101 b
b1100 M
b1100 `
b1100 e
1%
1+
#164000
0%
0+
#168000
b10 A
b10 l
b10 8"
b10 P
b10 t
b10 6"
b10 q
b10 N
b10 p
b10 r
b10 ="
b10 0
b10 K
b10 o
1?"
14
1D"
1=
bx 5"
bx Q
bx 7"
1x
1E
0v
0C
b1 @
b1 j
b1 n
b1 z
b1 }
b1 ""
b1 %"
b1111 O
b1111 _
b1111 c
b100001 1
b100001 L
b100001 <"
b10100000 :"
b10 4"
b101000 &"
b101000 #"
b101000 ~
b101000 {
b10 u
b10000010 s
b10 k
b1000 h
b10 g
b10100000 ]
b1110 d
b10100000100001 B
b10100000100001 f
b1111 S
b1111 ^
b1111 b
b1110 M
b1110 `
b1110 e
1%
1+
#172000
0%
0+
#176000
b111 ="
b111 0
b111 K
b111 o
b100 A
b100 l
b100 8"
b100 P
b100 t
b100 6"
1y
1F
0x
0E
b0 @
b0 j
b0 n
b0 z
b0 }
b0 ""
b0 %"
b100 q
b100 N
b100 p
b100 r
b110111 1
b110111 L
b110111 <"
b11000000 :"
b11 4"
b110000 &"
b110000 #"
b110000 ~
b110000 {
b11 u
b11 s
b11 k
b0 h
b11 g
b11000000 ]
b10000 O
b10000 _
b10000 c
b10 ?
b10 i
b10 m
b1111 d
b11000000110111 B
b11000000110111 f
b10000 S
b10000 ^
b10000 b
b1111 M
b1111 `
b1111 e
1%
1+
#180000
0%
0+
#184000
b100 ="
b100 0
b100 K
b100 o
1E"
1\
1>
b0 A
b0 l
b0 8"
b0 P
b0 t
b0 6"
0y
0F
1w
1D
b100 @
b100 j
b100 n
b100 z
b100 }
b100 ""
b100 %"
b0 q
b0 N
b0 p
b0 r
b10011 1
b10011 L
b10011 <"
b111001110 :"
b1 4"
b1110011 &"
b1110011 #"
b1110011 ~
b1110011 {
b1 u
b111001 s
b111 k
b11 h
b1001 g
b111001110 ]
b10001 O
b10001 _
b10001 c
b10000000 ?
b10000000 i
b10000000 m
b10000 d
b111001110010011 B
b111001110010011 f
b10001 S
b10001 ^
b10001 b
b10000 M
b10000 `
b10000 e
1%
1+
#188000
0%
0+
#192000
bx A
bx l
bx 8"
x\
x>
bx P
bx t
bx 6"
bx q
bx N
bx p
bx r
b0 ="
b0 0
b0 K
b0 o
0?"
04
0D"
0=
b11010000 5"
b11010000 Q
b11010000 7"
0w
0D
1v
1C
b0 @
b0 j
b0 n
b0 z
b0 }
b0 ""
b0 %"
bx ?
bx i
bx m
b1010 1
b1010 L
b1010 <"
b111 :"
b0 4"
b1 &"
b1 #"
b1 ~
b1 {
b0 u
b11100 s
b0 k
b1 h
b1100 g
b111 ]
b111 O
b111 _
b111 c
b10001 d
b111001010 B
b111001010 f
b10010 S
b10010 ^
b10010 b
b10001 M
b10001 `
b10001 e
1%
1+
#196000
0%
0+
#200000
b100 ="
b100 0
b100 K
b100 o
1?"
14
1D"
1=
bx 5"
bx Q
bx 7"
1E"
b0 A
b0 l
b0 8"
1\
1>
b0 P
b0 t
b0 6"
b0 q
b0 N
b0 p
b0 r
1y
1F
0v
0C
b11010000 @
b11010000 j
b11010000 n
b11010000 z
b11010000 }
b11010000 ""
b11010000 %"
b100 ?
b100 i
b100 m
b1000 O
b1000 _
b1000 c
b110011 1
b110011 L
b110011 <"
b101010000 :"
b11 4"
b1010100 &"
b1010100 #"
b1010100 ~
b1010100 {
b11 u
b1000011 s
b101 k
b100 h
b11 g
b101010000 ]
b111 d
b101010000110011 B
b101010000110011 f
b1000 S
b1000 ^
b1000 b
b111 M
b111 `
b111 e
1%
1+
#204000
0%
0+
#208000
b1 A
b1 l
b1 8"
0\
0>
b1 P
b1 t
b1 6"
b1 q
b1 N
b1 p
b1 r
b0 ="
b0 0
b0 K
b0 o
0D"
0=
b11010000 5"
b11010000 Q
b11010000 7"
0y
0F
1v
1C
b10 @
b10 j
b10 n
b10 z
b10 }
b10 ""
b10 %"
b1 ?
b1 i
b1 m
b1011 1
b1011 L
b1011 <"
b1010 :"
b0 4"
b10 &"
b10 #"
b10 ~
b10 {
b0 u
b101000 s
b0 k
b10 h
b1000 g
b1010 ]
b1001 O
b1001 _
b1001 c
b1000 d
b1010001011 B
b1010001011 f
b1001 S
b1001 ^
b1001 b
b1000 M
b1000 `
b1000 e
1%
1+
#212000
0%
0+
#216000
0?"
04
bx A
bx l
bx 8"
x\
x>
bx P
bx t
bx 6"
bx q
bx N
bx p
bx r
bx ?
bx i
bx m
b1001 1
b1001 L
b1001 <"
b1011 :"
b101100 s
b1100 g
b1011 ]
b1011 O
b1011 _
b1011 c
b1001 d
b1011001001 B
b1011001001 f
b1010 S
b1010 ^
b1010 b
b1001 M
b1001 `
b1001 e
1%
1+
#220000
0%
0+
#224000
b100 ="
b100 0
b100 K
b100 o
1?"
14
1D"
1=
bx 5"
bx Q
bx 7"
1E"
b0 A
b0 l
b0 8"
1\
1>
b0 P
b0 t
b0 6"
b0 q
b0 N
b0 p
b0 r
1y
1F
0v
0C
b11010000 @
b11010000 j
b11010000 n
b11010000 z
b11010000 }
b11010000 ""
b11010000 %"
b100 ?
b100 i
b100 m
b1100 O
b1100 _
b1100 c
b110011 1
b110011 L
b110011 <"
b101010000 :"
b11 4"
b1010100 &"
b1010100 #"
b1010100 ~
b1010100 {
b11 u
b1000011 s
b101 k
b100 h
b11 g
b101010000 ]
b1011 d
b101010000110011 B
b101010000110011 f
b1100 S
b1100 ^
b1100 b
b1011 M
b1011 `
b1011 e
1%
1+
#228000
0%
0+
#232000
b1 A
b1 l
b1 8"
0\
0>
b1 P
b1 t
b1 6"
b1 q
b1 N
b1 p
b1 r
b0 ="
b0 0
b0 K
b0 o
0?"
04
0D"
0=
b11010000 5"
b11010000 Q
b11010000 7"
0y
0F
1v
1C
b100 @
b100 j
b100 n
b100 z
b100 }
b100 ""
b100 %"
b1 ?
b1 i
b1 m
b1010 1
b1010 L
b1010 <"
b1110 :"
b0 4"
b11 &"
b11 #"
b11 ~
b11 {
b0 u
b111000 s
b0 k
b11 h
b1000 g
b1110 ]
b1110 O
b1110 _
b1110 c
b1100 d
b1110001010 B
b1110001010 f
b1101 S
b1101 ^
b1101 b
b1100 M
b1100 `
b1100 e
1%
1+
#236000
0%
0+
#240000
b10 ="
b10 0
b10 K
b10 o
1?"
14
1D"
1=
bx 5"
bx Q
bx 7"
b11 A
b11 l
b11 8"
b11 P
b11 t
b11 6"
b11 q
b11 N
b11 p
b11 r
1x
1E
0v
0C
b1 @
b1 j
b1 n
b1 z
b1 }
b1 ""
b1 %"
b10 ?
b10 i
b10 m
b1111 O
b1111 _
b1111 c
b100001 1
b100001 L
b100001 <"
b10100000 :"
b10 4"
b101000 &"
b101000 #"
b101000 ~
b101000 {
b10 u
b10000010 s
b10 k
b1000 h
b10 g
b10100000 ]
b1110 d
b10100000100001 B
b10100000100001 f
b1111 S
b1111 ^
b1111 b
b1110 M
b1110 `
b1110 e
1%
1+
#244000
0%
0+
#248000
b111 ="
b111 0
b111 K
b111 o
b1000 A
b1000 l
b1000 8"
b1000 P
b1000 t
b1000 6"
1y
1F
0x
0E
b0 @
b0 j
b0 n
b0 z
b0 }
b0 ""
b0 %"
b1000 q
b1000 N
b1000 p
b1000 r
b110111 1
b110111 L
b110111 <"
b11000000 :"
b11 4"
b110000 &"
b110000 #"
b110000 ~
b110000 {
b11 u
b11 s
b11 k
b0 h
b11 g
b11000000 ]
b10000 O
b10000 _
b10000 c
b100 ?
b100 i
b100 m
b1111 d
b11000000110111 B
b11000000110111 f
b10000 S
b10000 ^
b10000 b
b1111 M
b1111 `
b1111 e
1%
1+
#252000
0%
0+
#256000
b100 ="
b100 0
b100 K
b100 o
1E"
1\
1>
b0 A
b0 l
b0 8"
b0 P
b0 t
b0 6"
0y
0F
1w
1D
b1000 @
b1000 j
b1000 n
b1000 z
b1000 }
b1000 ""
b1000 %"
b0 q
b0 N
b0 p
b0 r
b10011 1
b10011 L
b10011 <"
b111001110 :"
b1 4"
b1110011 &"
b1110011 #"
b1110011 ~
b1110011 {
b1 u
b111001 s
b111 k
b11 h
b1001 g
b111001110 ]
b10001 O
b10001 _
b10001 c
b10000000 ?
b10000000 i
b10000000 m
b10000 d
b111001110010011 B
b111001110010011 f
b10001 S
b10001 ^
b10001 b
b10000 M
b10000 `
b10000 e
1%
1+
#260000
0%
0+
